---
http_interactions:
- request:
    method: get
    uri: https://api.pexels.com/v1/search?query=singapore
    body:
      encoding: US-ASCII
      string: ''
    headers:
      Authorization:
      - aDdDHA4l8i8SNsOX5WjduhhO5TJCp9lo5BCbD94KZaPp7MWpODGc8JE7
      User-Agent:
      - Faraday v2.7.10
      Accept-Encoding:
      - gzip;q=1.0,deflate;q=0.6,identity;q=0.3
      Accept:
      - "*/*"
  response:
    status:
      code: 200
      message: OK
    headers:
      Date:
      - Sun, 06 Aug 2023 22:10:11 GMT
      Content-Type:
      - application/json; charset=utf-8
      Transfer-Encoding:
      - chunked
      Connection:
      - keep-alive
      Cf-Ray:
      - 7f2a9bc77834276a-DEN
      Cf-Cache-Status:
      - HIT
      Access-Control-Allow-Origin:
      - "*"
      Age:
      - '16918'
      Cache-Control:
      - max-age=86400
      Etag:
      - W/"f67c21f8162b0b28e80d1b29ec216d7c"
      Expires:
      - Mon, 07 Aug 2023 22:10:11 GMT
      Access-Control-Allow-Headers:
      - Accept, Content-Type, Content-Length, Accept-Encoding, Authorization, User-Agent
      X-Frame-Options:
      - SAMEORIGIN
      X-Ratelimit-Limit:
      - '25000'
      X-Ratelimit-Remaining:
      - '24994'
      X-Ratelimit-Reset:
      - '1693934893'
      X-Request-Id:
      - 64893200-45b6-45d6-958b-f80908a2ed2c
      X-Runtime:
      - '0.071369'
      X-Server:
      - cat
      Set-Cookie:
      - __cf_bm=T3.43pj.hnfvwIjrQZT_jx92XV7cnQt1jqO4806tCbo-1691359811-0-AVjyq7BraCgaJHycgiybHnWySdTiLd1aP156WPH/kt+JwSAL5zFLvyhgnilkuRC3SizEUbQRBuCLqbJNLTvK+ys=;
        path=/; expires=Sun, 06-Aug-23 22:40:11 GMT; domain=.pexels.com; HttpOnly;
        Secure; SameSite=None
      Vary:
      - Accept-Encoding
      Server:
      - cloudflare
      Alt-Svc:
      - h3=":443"; ma=86400
    body:
      encoding: ASCII-8BIT
      string: '{"page":1,"per_page":15,"photos":[{"id":777059,"width":4928,"height":3264,"url":"https://www.pexels.com/photo/marina-bay-sands-singapore-777059/","photographer":"Kin
        Pastor","photographer_url":"https://www.pexels.com/@kin-pastor-251088","photographer_id":251088,"avg_color":"#4D3934","src":{"original":"https://images.pexels.com/photos/777059/pexels-photo-777059.jpeg","large2x":"https://images.pexels.com/photos/777059/pexels-photo-777059.jpeg?auto=compress\u0026cs=tinysrgb\u0026dpr=2\u0026h=650\u0026w=940","large":"https://images.pexels.com/photos/777059/pexels-photo-777059.jpeg?auto=compress\u0026cs=tinysrgb\u0026h=650\u0026w=940","medium":"https://images.pexels.com/photos/777059/pexels-photo-777059.jpeg?auto=compress\u0026cs=tinysrgb\u0026h=350","small":"https://images.pexels.com/photos/777059/pexels-photo-777059.jpeg?auto=compress\u0026cs=tinysrgb\u0026h=130","portrait":"https://images.pexels.com/photos/777059/pexels-photo-777059.jpeg?auto=compress\u0026cs=tinysrgb\u0026fit=crop\u0026h=1200\u0026w=800","landscape":"https://images.pexels.com/photos/777059/pexels-photo-777059.jpeg?auto=compress\u0026cs=tinysrgb\u0026fit=crop\u0026h=627\u0026w=1200","tiny":"https://images.pexels.com/photos/777059/pexels-photo-777059.jpeg?auto=compress\u0026cs=tinysrgb\u0026dpr=1\u0026fit=crop\u0026h=200\u0026w=280"},"liked":false,"alt":"Marina
        Bay Sands, Singapore"},{"id":1842332,"width":6879,"height":4586,"url":"https://www.pexels.com/photo/gardens-by-the-bay-singapore-1842332/","photographer":"Timo
        Volz","photographer_url":"https://www.pexels.com/@timo-volz-837240","photographer_id":837240,"avg_color":"#41393A","src":{"original":"https://images.pexels.com/photos/1842332/pexels-photo-1842332.jpeg","large2x":"https://images.pexels.com/photos/1842332/pexels-photo-1842332.jpeg?auto=compress\u0026cs=tinysrgb\u0026dpr=2\u0026h=650\u0026w=940","large":"https://images.pexels.com/photos/1842332/pexels-photo-1842332.jpeg?auto=compress\u0026cs=tinysrgb\u0026h=650\u0026w=940","medium":"https://images.pexels.com/photos/1842332/pexels-photo-1842332.jpeg?auto=compress\u0026cs=tinysrgb\u0026h=350","small":"https://images.pexels.com/photos/1842332/pexels-photo-1842332.jpeg?auto=compress\u0026cs=tinysrgb\u0026h=130","portrait":"https://images.pexels.com/photos/1842332/pexels-photo-1842332.jpeg?auto=compress\u0026cs=tinysrgb\u0026fit=crop\u0026h=1200\u0026w=800","landscape":"https://images.pexels.com/photos/1842332/pexels-photo-1842332.jpeg?auto=compress\u0026cs=tinysrgb\u0026fit=crop\u0026h=627\u0026w=1200","tiny":"https://images.pexels.com/photos/1842332/pexels-photo-1842332.jpeg?auto=compress\u0026cs=tinysrgb\u0026dpr=1\u0026fit=crop\u0026h=200\u0026w=280"},"liked":false,"alt":"Gardens
        by the Bay, Singapore"},{"id":1682794,"width":3329,"height":4519,"url":"https://www.pexels.com/photo/aerial-shot-of-buildings-near-ocean-1682794/","photographer":"Ingo
        Joseph","photographer_url":"https://www.pexels.com/@ingo","photographer_id":3,"avg_color":"#839A98","src":{"original":"https://images.pexels.com/photos/1682794/pexels-photo-1682794.jpeg","large2x":"https://images.pexels.com/photos/1682794/pexels-photo-1682794.jpeg?auto=compress\u0026cs=tinysrgb\u0026dpr=2\u0026h=650\u0026w=940","large":"https://images.pexels.com/photos/1682794/pexels-photo-1682794.jpeg?auto=compress\u0026cs=tinysrgb\u0026h=650\u0026w=940","medium":"https://images.pexels.com/photos/1682794/pexels-photo-1682794.jpeg?auto=compress\u0026cs=tinysrgb\u0026h=350","small":"https://images.pexels.com/photos/1682794/pexels-photo-1682794.jpeg?auto=compress\u0026cs=tinysrgb\u0026h=130","portrait":"https://images.pexels.com/photos/1682794/pexels-photo-1682794.jpeg?auto=compress\u0026cs=tinysrgb\u0026fit=crop\u0026h=1200\u0026w=800","landscape":"https://images.pexels.com/photos/1682794/pexels-photo-1682794.jpeg?auto=compress\u0026cs=tinysrgb\u0026fit=crop\u0026h=627\u0026w=1200","tiny":"https://images.pexels.com/photos/1682794/pexels-photo-1682794.jpeg?auto=compress\u0026cs=tinysrgb\u0026dpr=1\u0026fit=crop\u0026h=200\u0026w=280"},"liked":false,"alt":"Aerial
        Shot Of Buildings Near Ocean"},{"id":2426546,"width":5519,"height":3679,"url":"https://www.pexels.com/photo/green-leafed-plants-inside-greenhouse-2426546/","photographer":"Palu
        Malerba","photographer_url":"https://www.pexels.com/@palumalerba","photographer_id":1273004,"avg_color":"#626658","src":{"original":"https://images.pexels.com/photos/2426546/pexels-photo-2426546.jpeg","large2x":"https://images.pexels.com/photos/2426546/pexels-photo-2426546.jpeg?auto=compress\u0026cs=tinysrgb\u0026dpr=2\u0026h=650\u0026w=940","large":"https://images.pexels.com/photos/2426546/pexels-photo-2426546.jpeg?auto=compress\u0026cs=tinysrgb\u0026h=650\u0026w=940","medium":"https://images.pexels.com/photos/2426546/pexels-photo-2426546.jpeg?auto=compress\u0026cs=tinysrgb\u0026h=350","small":"https://images.pexels.com/photos/2426546/pexels-photo-2426546.jpeg?auto=compress\u0026cs=tinysrgb\u0026h=130","portrait":"https://images.pexels.com/photos/2426546/pexels-photo-2426546.jpeg?auto=compress\u0026cs=tinysrgb\u0026fit=crop\u0026h=1200\u0026w=800","landscape":"https://images.pexels.com/photos/2426546/pexels-photo-2426546.jpeg?auto=compress\u0026cs=tinysrgb\u0026fit=crop\u0026h=627\u0026w=1200","tiny":"https://images.pexels.com/photos/2426546/pexels-photo-2426546.jpeg?auto=compress\u0026cs=tinysrgb\u0026dpr=1\u0026fit=crop\u0026h=200\u0026w=280"},"liked":false,"alt":"Green-leafed
        Plants Inside Greenhouse"},{"id":867092,"width":4096,"height":2160,"url":"https://www.pexels.com/photo/photography-of-city-during-dusk-867092/","photographer":"Jahoo
        Clouseau","photographer_url":"https://www.pexels.com/@jahoo","photographer_id":124012,"avg_color":"#273853","src":{"original":"https://images.pexels.com/photos/867092/pexels-photo-867092.jpeg","large2x":"https://images.pexels.com/photos/867092/pexels-photo-867092.jpeg?auto=compress\u0026cs=tinysrgb\u0026dpr=2\u0026h=650\u0026w=940","large":"https://images.pexels.com/photos/867092/pexels-photo-867092.jpeg?auto=compress\u0026cs=tinysrgb\u0026h=650\u0026w=940","medium":"https://images.pexels.com/photos/867092/pexels-photo-867092.jpeg?auto=compress\u0026cs=tinysrgb\u0026h=350","small":"https://images.pexels.com/photos/867092/pexels-photo-867092.jpeg?auto=compress\u0026cs=tinysrgb\u0026h=130","portrait":"https://images.pexels.com/photos/867092/pexels-photo-867092.jpeg?auto=compress\u0026cs=tinysrgb\u0026fit=crop\u0026h=1200\u0026w=800","landscape":"https://images.pexels.com/photos/867092/pexels-photo-867092.jpeg?auto=compress\u0026cs=tinysrgb\u0026fit=crop\u0026h=627\u0026w=1200","tiny":"https://images.pexels.com/photos/867092/pexels-photo-867092.jpeg?auto=compress\u0026cs=tinysrgb\u0026dpr=1\u0026fit=crop\u0026h=200\u0026w=280"},"liked":false,"alt":"Photography
        of City During Dusk"},{"id":290597,"width":5472,"height":3648,"url":"https://www.pexels.com/photo/architecture-building-illuminated-night-290597/","photographer":"Pixabay","photographer_url":"https://www.pexels.com/@pixabay","photographer_id":2659,"avg_color":"#2B3F5B","src":{"original":"https://images.pexels.com/photos/290597/pexels-photo-290597.jpeg","large2x":"https://images.pexels.com/photos/290597/pexels-photo-290597.jpeg?auto=compress\u0026cs=tinysrgb\u0026dpr=2\u0026h=650\u0026w=940","large":"https://images.pexels.com/photos/290597/pexels-photo-290597.jpeg?auto=compress\u0026cs=tinysrgb\u0026h=650\u0026w=940","medium":"https://images.pexels.com/photos/290597/pexels-photo-290597.jpeg?auto=compress\u0026cs=tinysrgb\u0026h=350","small":"https://images.pexels.com/photos/290597/pexels-photo-290597.jpeg?auto=compress\u0026cs=tinysrgb\u0026h=130","portrait":"https://images.pexels.com/photos/290597/pexels-photo-290597.jpeg?auto=compress\u0026cs=tinysrgb\u0026fit=crop\u0026h=1200\u0026w=800","landscape":"https://images.pexels.com/photos/290597/pexels-photo-290597.jpeg?auto=compress\u0026cs=tinysrgb\u0026fit=crop\u0026h=627\u0026w=1200","tiny":"https://images.pexels.com/photos/290597/pexels-photo-290597.jpeg?auto=compress\u0026cs=tinysrgb\u0026dpr=1\u0026fit=crop\u0026h=200\u0026w=280"},"liked":false,"alt":"Marina
        Bay Sand, Singapore"},{"id":1212956,"width":3024,"height":4032,"url":"https://www.pexels.com/photo/high-rise-building-and-ferris-wheel-1212956/","photographer":"Andrea
        Durey","photographer_url":"https://www.pexels.com/@andrea-durey-498853","photographer_id":498853,"avg_color":"#858F8D","src":{"original":"https://images.pexels.com/photos/1212956/pexels-photo-1212956.jpeg","large2x":"https://images.pexels.com/photos/1212956/pexels-photo-1212956.jpeg?auto=compress\u0026cs=tinysrgb\u0026dpr=2\u0026h=650\u0026w=940","large":"https://images.pexels.com/photos/1212956/pexels-photo-1212956.jpeg?auto=compress\u0026cs=tinysrgb\u0026h=650\u0026w=940","medium":"https://images.pexels.com/photos/1212956/pexels-photo-1212956.jpeg?auto=compress\u0026cs=tinysrgb\u0026h=350","small":"https://images.pexels.com/photos/1212956/pexels-photo-1212956.jpeg?auto=compress\u0026cs=tinysrgb\u0026h=130","portrait":"https://images.pexels.com/photos/1212956/pexels-photo-1212956.jpeg?auto=compress\u0026cs=tinysrgb\u0026fit=crop\u0026h=1200\u0026w=800","landscape":"https://images.pexels.com/photos/1212956/pexels-photo-1212956.jpeg?auto=compress\u0026cs=tinysrgb\u0026fit=crop\u0026h=627\u0026w=1200","tiny":"https://images.pexels.com/photos/1212956/pexels-photo-1212956.jpeg?auto=compress\u0026cs=tinysrgb\u0026dpr=1\u0026fit=crop\u0026h=200\u0026w=280"},"liked":false,"alt":"High-rise
        Building And Ferris Wheel"},{"id":1029188,"width":4814,"height":3158,"url":"https://www.pexels.com/photo/scenic-view-of-city-during-night-time-1029188/","photographer":"Alaric
        Sim","photographer_url":"https://www.pexels.com/@alaric-sim-380461","photographer_id":380461,"avg_color":"#2A2D30","src":{"original":"https://images.pexels.com/photos/1029188/pexels-photo-1029188.jpeg","large2x":"https://images.pexels.com/photos/1029188/pexels-photo-1029188.jpeg?auto=compress\u0026cs=tinysrgb\u0026dpr=2\u0026h=650\u0026w=940","large":"https://images.pexels.com/photos/1029188/pexels-photo-1029188.jpeg?auto=compress\u0026cs=tinysrgb\u0026h=650\u0026w=940","medium":"https://images.pexels.com/photos/1029188/pexels-photo-1029188.jpeg?auto=compress\u0026cs=tinysrgb\u0026h=350","small":"https://images.pexels.com/photos/1029188/pexels-photo-1029188.jpeg?auto=compress\u0026cs=tinysrgb\u0026h=130","portrait":"https://images.pexels.com/photos/1029188/pexels-photo-1029188.jpeg?auto=compress\u0026cs=tinysrgb\u0026fit=crop\u0026h=1200\u0026w=800","landscape":"https://images.pexels.com/photos/1029188/pexels-photo-1029188.jpeg?auto=compress\u0026cs=tinysrgb\u0026fit=crop\u0026h=627\u0026w=1200","tiny":"https://images.pexels.com/photos/1029188/pexels-photo-1029188.jpeg?auto=compress\u0026cs=tinysrgb\u0026dpr=1\u0026fit=crop\u0026h=200\u0026w=280"},"liked":false,"alt":"Scenic
        View of City During Night Time"},{"id":326699,"width":4864,"height":3648,"url":"https://www.pexels.com/photo/view-of-illuminated-buildings-at-night-326699/","photographer":"Pixabay","photographer_url":"https://www.pexels.com/@pixabay","photographer_id":2659,"avg_color":"#49342F","src":{"original":"https://images.pexels.com/photos/326699/pexels-photo-326699.jpeg","large2x":"https://images.pexels.com/photos/326699/pexels-photo-326699.jpeg?auto=compress\u0026cs=tinysrgb\u0026dpr=2\u0026h=650\u0026w=940","large":"https://images.pexels.com/photos/326699/pexels-photo-326699.jpeg?auto=compress\u0026cs=tinysrgb\u0026h=650\u0026w=940","medium":"https://images.pexels.com/photos/326699/pexels-photo-326699.jpeg?auto=compress\u0026cs=tinysrgb\u0026h=350","small":"https://images.pexels.com/photos/326699/pexels-photo-326699.jpeg?auto=compress\u0026cs=tinysrgb\u0026h=130","portrait":"https://images.pexels.com/photos/326699/pexels-photo-326699.jpeg?auto=compress\u0026cs=tinysrgb\u0026fit=crop\u0026h=1200\u0026w=800","landscape":"https://images.pexels.com/photos/326699/pexels-photo-326699.jpeg?auto=compress\u0026cs=tinysrgb\u0026fit=crop\u0026h=627\u0026w=1200","tiny":"https://images.pexels.com/photos/326699/pexels-photo-326699.jpeg?auto=compress\u0026cs=tinysrgb\u0026dpr=1\u0026fit=crop\u0026h=200\u0026w=280"},"liked":false,"alt":"View
        of Illuminated Buildings at Night"},{"id":711193,"width":5616,"height":2913,"url":"https://www.pexels.com/photo/london-s-eye-711193/","photographer":"Robert  Stokoe","photographer_url":"https://www.pexels.com/@robert-stokoe-105922","photographer_id":105922,"avg_color":"#424560","src":{"original":"https://images.pexels.com/photos/711193/pexels-photo-711193.jpeg","large2x":"https://images.pexels.com/photos/711193/pexels-photo-711193.jpeg?auto=compress\u0026cs=tinysrgb\u0026dpr=2\u0026h=650\u0026w=940","large":"https://images.pexels.com/photos/711193/pexels-photo-711193.jpeg?auto=compress\u0026cs=tinysrgb\u0026h=650\u0026w=940","medium":"https://images.pexels.com/photos/711193/pexels-photo-711193.jpeg?auto=compress\u0026cs=tinysrgb\u0026h=350","small":"https://images.pexels.com/photos/711193/pexels-photo-711193.jpeg?auto=compress\u0026cs=tinysrgb\u0026h=130","portrait":"https://images.pexels.com/photos/711193/pexels-photo-711193.jpeg?auto=compress\u0026cs=tinysrgb\u0026fit=crop\u0026h=1200\u0026w=800","landscape":"https://images.pexels.com/photos/711193/pexels-photo-711193.jpeg?auto=compress\u0026cs=tinysrgb\u0026fit=crop\u0026h=627\u0026w=1200","tiny":"https://images.pexels.com/photos/711193/pexels-photo-711193.jpeg?auto=compress\u0026cs=tinysrgb\u0026dpr=1\u0026fit=crop\u0026h=200\u0026w=280"},"liked":false,"alt":"London''s
        Eye"},{"id":1907047,"width":5760,"height":3840,"url":"https://www.pexels.com/photo/gardens-by-the-bay-singapore-1907047/","photographer":"Elina
        Sazonova","photographer_url":"https://www.pexels.com/@elina-sazonova","photographer_id":912559,"avg_color":"#B2B3A9","src":{"original":"https://images.pexels.com/photos/1907047/pexels-photo-1907047.jpeg","large2x":"https://images.pexels.com/photos/1907047/pexels-photo-1907047.jpeg?auto=compress\u0026cs=tinysrgb\u0026dpr=2\u0026h=650\u0026w=940","large":"https://images.pexels.com/photos/1907047/pexels-photo-1907047.jpeg?auto=compress\u0026cs=tinysrgb\u0026h=650\u0026w=940","medium":"https://images.pexels.com/photos/1907047/pexels-photo-1907047.jpeg?auto=compress\u0026cs=tinysrgb\u0026h=350","small":"https://images.pexels.com/photos/1907047/pexels-photo-1907047.jpeg?auto=compress\u0026cs=tinysrgb\u0026h=130","portrait":"https://images.pexels.com/photos/1907047/pexels-photo-1907047.jpeg?auto=compress\u0026cs=tinysrgb\u0026fit=crop\u0026h=1200\u0026w=800","landscape":"https://images.pexels.com/photos/1907047/pexels-photo-1907047.jpeg?auto=compress\u0026cs=tinysrgb\u0026fit=crop\u0026h=627\u0026w=1200","tiny":"https://images.pexels.com/photos/1907047/pexels-photo-1907047.jpeg?auto=compress\u0026cs=tinysrgb\u0026dpr=1\u0026fit=crop\u0026h=200\u0026w=280"},"liked":false,"alt":"Gardens
        by the Bay, Singapore"},{"id":2434268,"width":3024,"height":4032,"url":"https://www.pexels.com/photo/gray-ferris-wheel-2434268/","photographer":"Tiff
        Ng","photographer_url":"https://www.pexels.com/@anytiffng","photographer_id":1104635,"avg_color":"#6E7E89","src":{"original":"https://images.pexels.com/photos/2434268/pexels-photo-2434268.jpeg","large2x":"https://images.pexels.com/photos/2434268/pexels-photo-2434268.jpeg?auto=compress\u0026cs=tinysrgb\u0026dpr=2\u0026h=650\u0026w=940","large":"https://images.pexels.com/photos/2434268/pexels-photo-2434268.jpeg?auto=compress\u0026cs=tinysrgb\u0026h=650\u0026w=940","medium":"https://images.pexels.com/photos/2434268/pexels-photo-2434268.jpeg?auto=compress\u0026cs=tinysrgb\u0026h=350","small":"https://images.pexels.com/photos/2434268/pexels-photo-2434268.jpeg?auto=compress\u0026cs=tinysrgb\u0026h=130","portrait":"https://images.pexels.com/photos/2434268/pexels-photo-2434268.jpeg?auto=compress\u0026cs=tinysrgb\u0026fit=crop\u0026h=1200\u0026w=800","landscape":"https://images.pexels.com/photos/2434268/pexels-photo-2434268.jpeg?auto=compress\u0026cs=tinysrgb\u0026fit=crop\u0026h=627\u0026w=1200","tiny":"https://images.pexels.com/photos/2434268/pexels-photo-2434268.jpeg?auto=compress\u0026cs=tinysrgb\u0026dpr=1\u0026fit=crop\u0026h=200\u0026w=280"},"liked":false,"alt":"Gray
        Ferris Wheel"},{"id":326787,"width":4000,"height":3000,"url":"https://www.pexels.com/photo/city-lit-up-at-night-326787/","photographer":"Pixabay","photographer_url":"https://www.pexels.com/@pixabay","photographer_id":2659,"avg_color":"#272224","src":{"original":"https://images.pexels.com/photos/326787/pexels-photo-326787.jpeg","large2x":"https://images.pexels.com/photos/326787/pexels-photo-326787.jpeg?auto=compress\u0026cs=tinysrgb\u0026dpr=2\u0026h=650\u0026w=940","large":"https://images.pexels.com/photos/326787/pexels-photo-326787.jpeg?auto=compress\u0026cs=tinysrgb\u0026h=650\u0026w=940","medium":"https://images.pexels.com/photos/326787/pexels-photo-326787.jpeg?auto=compress\u0026cs=tinysrgb\u0026h=350","small":"https://images.pexels.com/photos/326787/pexels-photo-326787.jpeg?auto=compress\u0026cs=tinysrgb\u0026h=130","portrait":"https://images.pexels.com/photos/326787/pexels-photo-326787.jpeg?auto=compress\u0026cs=tinysrgb\u0026fit=crop\u0026h=1200\u0026w=800","landscape":"https://images.pexels.com/photos/326787/pexels-photo-326787.jpeg?auto=compress\u0026cs=tinysrgb\u0026fit=crop\u0026h=627\u0026w=1200","tiny":"https://images.pexels.com/photos/326787/pexels-photo-326787.jpeg?auto=compress\u0026cs=tinysrgb\u0026dpr=1\u0026fit=crop\u0026h=200\u0026w=280"},"liked":false,"alt":"City
        Lit Up at Night"},{"id":1619660,"width":4608,"height":3072,"url":"https://www.pexels.com/photo/concrete-buildings-1619660/","photographer":"Geraldine
        Tay","photographer_url":"https://www.pexels.com/@geraldine-tay-677272","photographer_id":677272,"avg_color":"#818F97","src":{"original":"https://images.pexels.com/photos/1619660/pexels-photo-1619660.jpeg","large2x":"https://images.pexels.com/photos/1619660/pexels-photo-1619660.jpeg?auto=compress\u0026cs=tinysrgb\u0026dpr=2\u0026h=650\u0026w=940","large":"https://images.pexels.com/photos/1619660/pexels-photo-1619660.jpeg?auto=compress\u0026cs=tinysrgb\u0026h=650\u0026w=940","medium":"https://images.pexels.com/photos/1619660/pexels-photo-1619660.jpeg?auto=compress\u0026cs=tinysrgb\u0026h=350","small":"https://images.pexels.com/photos/1619660/pexels-photo-1619660.jpeg?auto=compress\u0026cs=tinysrgb\u0026h=130","portrait":"https://images.pexels.com/photos/1619660/pexels-photo-1619660.jpeg?auto=compress\u0026cs=tinysrgb\u0026fit=crop\u0026h=1200\u0026w=800","landscape":"https://images.pexels.com/photos/1619660/pexels-photo-1619660.jpeg?auto=compress\u0026cs=tinysrgb\u0026fit=crop\u0026h=627\u0026w=1200","tiny":"https://images.pexels.com/photos/1619660/pexels-photo-1619660.jpeg?auto=compress\u0026cs=tinysrgb\u0026dpr=1\u0026fit=crop\u0026h=200\u0026w=280"},"liked":false,"alt":"Concrete
        Buildings"},{"id":2434269,"width":3024,"height":4032,"url":"https://www.pexels.com/photo/jewel-changi-airport-2434269/","photographer":"Tiff
        Ng","photographer_url":"https://www.pexels.com/@anytiffng","photographer_id":1104635,"avg_color":"#515A4F","src":{"original":"https://images.pexels.com/photos/2434269/pexels-photo-2434269.jpeg","large2x":"https://images.pexels.com/photos/2434269/pexels-photo-2434269.jpeg?auto=compress\u0026cs=tinysrgb\u0026dpr=2\u0026h=650\u0026w=940","large":"https://images.pexels.com/photos/2434269/pexels-photo-2434269.jpeg?auto=compress\u0026cs=tinysrgb\u0026h=650\u0026w=940","medium":"https://images.pexels.com/photos/2434269/pexels-photo-2434269.jpeg?auto=compress\u0026cs=tinysrgb\u0026h=350","small":"https://images.pexels.com/photos/2434269/pexels-photo-2434269.jpeg?auto=compress\u0026cs=tinysrgb\u0026h=130","portrait":"https://images.pexels.com/photos/2434269/pexels-photo-2434269.jpeg?auto=compress\u0026cs=tinysrgb\u0026fit=crop\u0026h=1200\u0026w=800","landscape":"https://images.pexels.com/photos/2434269/pexels-photo-2434269.jpeg?auto=compress\u0026cs=tinysrgb\u0026fit=crop\u0026h=627\u0026w=1200","tiny":"https://images.pexels.com/photos/2434269/pexels-photo-2434269.jpeg?auto=compress\u0026cs=tinysrgb\u0026dpr=1\u0026fit=crop\u0026h=200\u0026w=280"},"liked":false,"alt":"Jewel
        Changi Airport"}],"total_results":798,"next_page":"https://api.pexels.com/v1/search/?page=2\u0026per_page=15\u0026query=singapore"}'
  recorded_at: Sun, 06 Aug 2023 22:10:11 GMT
recorded_with: VCR 6.2.0
